gcc-7 (Ubuntu 7,1,0-10ubuntu1~16,04,york0) 7,1,0
Copyright (C) 2017 Free Software Foundation, Inc,
This is free software; see the source for copying conditions,  There is NO
warranty; not even for MERCHANTABILITY or FITNESS FOR A PARTICULAR PURPOSE,

N = 5000
33,400368
33,162847
N = 10000
231,275586
231,291034
N = 15000
N = 20000
