gcc-7 (Ubuntu 7,1,0-10ubuntu1~16,04,york0) 7,1,0
Copyright (C) 2017 Free Software Foundation, Inc,
This is free software; see the source for copying conditions,  There is NO
warranty; not even for MERCHANTABILITY or FITNESS FOR A PARTICULAR PURPOSE,

N = 5000
53,250088
52,499413
52,387173
52,641418
52,326481
N = 10000
361,932159
384,158142
376,198456
348,223724
380,891998
N = 15000
1217,603760
1193,377563
1212,438843
1202,539551
1209,396973
N = 20000
2873,579346
2994,833984
3413,602539
3370,245605
3399,219482
