gcc-7 (Ubuntu 7,1,0-10ubuntu1~16,04,york0) 7,1,0
Copyright (C) 2017 Free Software Foundation, Inc,
This is free software; see the source for copying conditions,  There is NO
warranty; not even for MERCHANTABILITY or FITNESS FOR A PARTICULAR PURPOSE,

N = 5000
20,156590
19,677801
19,605959
19,594343
19,586496
N = 10000
126,344116
126,376167
126,254181
126,418739
126,109482
N = 15000
396,366211
396,703979
402,626129
393,420471
398,496155
N = 20000
914,933655
968,921387
973,686646
1030,598145
975,130066
