gcc (Ubuntu 5,4,0-6ubuntu1~16,04,10) 5,4,0 20160609
Copyright (C) 2015 Free Software Foundation, Inc,
This is free software; see the source for copying conditions,  There is NO
warranty; not even for MERCHANTABILITY or FITNESS FOR A PARTICULAR PURPOSE,

N = 5000
46,515949
46,358177
46,061592
45,946167
45,851692
N = 10000
330,870331
328,917328
330,784607
330,182892
330,178741
N = 15000
1060,711670
1060,715454
1060,440063
1060,124023
1122,449829
N = 20000
2934,416748
2986,699463
3013,834473
2804,446533
2861,655029
