gcc (Ubuntu 5,4,0-6ubuntu1~16,04,10) 5,4,0 20160609
Copyright (C) 2015 Free Software Foundation, Inc,
This is free software; see the source for copying conditions,  There is NO
warranty; not even for MERCHANTABILITY or FITNESS FOR A PARTICULAR PURPOSE,

N = 5000
322,814484
322,187225
322,355042
323,300232
321,782104
N = 10000
2539,303955
2538,692383
2543,876221
2536,166504
2538,723877
N = 15000
8570,289062
8579,817383
8566,959961
8572,780273
8569,894531
N = 20000
20122,107422
20111,017578
20121,546875
20133,054688
20128,800781
