gcc (Ubuntu 5,4,0-6ubuntu1~16,04,10) 5,4,0 20160609
Copyright (C) 2015 Free Software Foundation, Inc,
This is free software; see the source for copying conditions,  There is NO
warranty; not even for MERCHANTABILITY or FITNESS FOR A PARTICULAR PURPOSE,

N = 5000 - padrao
124,936269
124,947221
125,174496
125,242860
124,494567
N = 5000 - O
33,871455
33,934129
34,144564
33,931512
33,912001
N = 5000 - O1
33,786758
33,972445
33,948081
33,915321
33,911583
N = 5000 - O2
34,048207
34,124121
34,068907
33,926171
34,036696
N = 5000 - O3
34,250131
34,111775
34,022845
34,168581
34,042325
N = 5000 - Ofast
30,070986
30,112112
29,789811
30,105014
30,026050
N = 5000 - Og
49,532050
49,816133
49,610343
49,703305
49,548127
N = 5000 - Os
35,013513
35,220010
35,028002
34,975613
35,028270
