gcc (Ubuntu 5,4,0-6ubuntu1~16,04,10) 5,4,0 20160609
Copyright (C) 2015 Free Software Foundation, Inc,
This is free software; see the source for copying conditions,  There is NO
warranty; not even for MERCHANTABILITY or FITNESS FOR A PARTICULAR PURPOSE,

N = 5000 - padrao
413,858415
413,166028
413,233889
412,681338
412,078503
N = 5000 - O
148,273876
147,728589
147,615468
147,724738
148,033796
N = 5000 - O1
148,309005
147,671768
147,992137
147,815057
147,848925
N = 5000 - O2
316,137214
316,166199
315,985066
316,184494
315,942114
N = 5000 - O3
316,181268
316,519205
316,652040
316,692071
317,014913
N = 5000 - Ofast
317,065020
316,953133
317,212958
316,993796
316,929020
N = 5000 - Og
146,760029
146,440108
146,422221
146,347313
146,285721
N = 5000 - Os
316,790542
316,914030
316,773159
316,878354
316,943298
