gcc-7 (Ubuntu 7,1,0-10ubuntu1~16,04,york0) 7,1,0
Copyright (C) 2017 Free Software Foundation, Inc,
This is free software; see the source for copying conditions,  There is NO
warranty; not even for MERCHANTABILITY or FITNESS FOR A PARTICULAR PURPOSE,

N = 5000
204,429367
205,537354
N = 10000
1616,856812
1614,716675
N = 15000
N = 20000
