gcc-7 (Ubuntu 7,1,0-10ubuntu1~16,04,york0) 7,1,0
Copyright (C) 2017 Free Software Foundation, Inc,
This is free software; see the source for copying conditions,  There is NO
warranty; not even for MERCHANTABILITY or FITNESS FOR A PARTICULAR PURPOSE,

N = 5000
320,905731
321,639313
N = 10000
2524,929932
2518,529541
N = 15000
N = 20000
