N = 5000
1 - 7.395160 s
2 - 7.311228 s
3 - 7.288676 s
4 - 7.454224 s
5 - 7.341199 s
6 - 7.430236 s
7 - 7.331618 s
8 - 7.390489 s
9 - 7.286232 s
10 - 7.312603 s
11 - 7.287711 s
12 - 7.292032 s
13 - 7.284518 s
14 - 7.363494 s
15 - 7.317189 s
16 - 7.297269 s
17 - 7.295859 s
18 - 7.319489 s
19 - 7.517256 s
20 - 7.395697 s
