gcc-7 (Ubuntu 7,1,0-10ubuntu1~16,04,york0) 7,1,0
Copyright (C) 2017 Free Software Foundation, Inc,
This is free software; see the source for copying conditions,  There is NO
warranty; not even for MERCHANTABILITY or FITNESS FOR A PARTICULAR PURPOSE,

N = 5000
35,347818
34,723450
34,584794
34,707880
34,720250
N = 10000
222,177282
251,899291
245,923794
245,083005
221,239057
N = 15000
813,312051
862,551975
792,197725
883,488660
934,687781
N = 20000
2270,026415
2283,506372
2252,648052
2371,433317
2315,602049
