gcc-7 (Ubuntu 7,1,0-10ubuntu1~16,04,york0) 7,1,0
Copyright (C) 2017 Free Software Foundation, Inc,
This is free software; see the source for copying conditions,  There is NO
warranty; not even for MERCHANTABILITY or FITNESS FOR A PARTICULAR PURPOSE,

N = 5000
149,223157
150,217042
149,984826
146,967757
147,205146
N = 10000
1195,549858
1196,211680
1226,646274
1246,204903
1246,605240
