gcc (Ubuntu 5,4,0-6ubuntu1~16,04,10) 5,4,0 20160609
Copyright (C) 2015 Free Software Foundation, Inc,
This is free software; see the source for copying conditions,  There is NO
warranty; not even for MERCHANTABILITY or FITNESS FOR A PARTICULAR PURPOSE,

N = 5000
41,511654
41,110303
41,142653
40,995964
41,206678
N = 10000
297,654512
275,961587
264,621676
295,002652
295,618553
N = 15000
989,513087
963,130418
1026,965664
988,561609
929,786662
N = 20000
1667,383440
1662,833418
1660,576710
1660,987742
1660,874132
