gcc-7 (Ubuntu 7,1,0-10ubuntu1~16,04,york0) 7,1,0
Copyright (C) 2017 Free Software Foundation, Inc,
This is free software; see the source for copying conditions,  There is NO
warranty; not even for MERCHANTABILITY or FITNESS FOR A PARTICULAR PURPOSE,

N = 5000
317,190853
316,809821
316,915275
316,848970
316,984537
N = 10000
2510,169520
2509,991546
2508,140594
2508,387807
2509,230501
N = 15000
8445,304554
8441,851897
8444,531044
8447,094891
8456,264847
N = 20000
19986,706906
19980,740156
