gcc (Ubuntu 5,4,0-6ubuntu1~16,04,10) 5,4,0 20160609
Copyright (C) 2015 Free Software Foundation, Inc,
This is free software; see the source for copying conditions,  There is NO
warranty; not even for MERCHANTABILITY or FITNESS FOR A PARTICULAR PURPOSE,

N = 5000
442,928524
441,367121
441,947988
441,530288
441,517796
N = 10000
3503,015800
3504,087967
3499,734478
3499,352772
3498,038566
N = 15000
11921,359316
11898,058805
11911,271401
11903,668781
11920,306691
N = 20000
27806,059206
27839,097578
27901,466148
28478,513622
28597,175744
