gcc (Ubuntu 5,4,0-6ubuntu1~16,04,10) 5,4,0 20160609
Copyright (C) 2015 Free Software Foundation, Inc,
This is free software; see the source for copying conditions,  There is NO
warranty; not even for MERCHANTABILITY or FITNESS FOR A PARTICULAR PURPOSE,

N = 5000
80,016905
79,883438
N = 10000
597,033774
599,608274
N = 15000
N = 20000
