gcc (Ubuntu 5,4,0-6ubuntu1~16,04,10) 5,4,0 20160609
Copyright (C) 2015 Free Software Foundation, Inc,
This is free software; see the source for copying conditions,  There is NO
warranty; not even for MERCHANTABILITY or FITNESS FOR A PARTICULAR PURPOSE,

N = 5000 - padrao
122,320801
122,366043
122,482689
122,413788
122,346771
N = 5000 - O
30,576933
30,702158
30,527191
30,498936
30,679420
N = 5000 - O1
30,484362
30,561308
30,481846
30,522383
30,513054
N = 5000 - O2
30,451077
30,453407
30,461498
30,521379
30,485065
N = 5000 - O3
30,487228
30,502281
30,437292
30,582624
30,545059
N = 5000 - Ofast
19,177277
19,187859
19,325853
19,308626
19,170996
N = 5000 - Og
48,060951
47,520721
47,713661
47,736423
47,950790
N = 5000 - Os
31,355095
31,341787
31,348101
31,444418
31,362360
