gcc (Ubuntu 5,4,0-6ubuntu1~16,04,10) 5,4,0 20160609
Copyright (C) 2015 Free Software Foundation, Inc,
This is free software; see the source for copying conditions,  There is NO
warranty; not even for MERCHANTABILITY or FITNESS FOR A PARTICULAR PURPOSE,

N = 5000
228,768483
228,926686
228,593007
228,602987
228,706021
N = 10000
1604,908783
1513,144666
1511,775127
1512,007318
1512,978837
