gcc (Ubuntu 5,4,0-6ubuntu1~16,04,10) 5,4,0 20160609
Copyright (C) 2015 Free Software Foundation, Inc,
This is free software; see the source for copying conditions,  There is NO
warranty; not even for MERCHANTABILITY or FITNESS FOR A PARTICULAR PURPOSE,

N = 5000
34,928910
34,884664
34,811575
34,836879
34,844770
N = 10000
249,624108
249,318467
249,868086
248,193154
249,123388
N = 15000
821,007564
815,844110
818,859979
812,162335
813,546121
N = 20000
1925,327597
1919,624205
1922,082316
1922,624968
1917,822520
