gcc-7 (Ubuntu 7,1,0-10ubuntu1~16,04,york0) 7,1,0
Copyright (C) 2017 Free Software Foundation, Inc,
This is free software; see the source for copying conditions,  There is NO
warranty; not even for MERCHANTABILITY or FITNESS FOR A PARTICULAR PURPOSE,

N = 5000
80,723408
80,023169
79,984862
80,072062
80,312398
N = 10000
620,562114
631,160529
613,470601
620,032027
641,234351
N = 15000
2043,645771
1989,377472
1998,879636
2074,144158
2109,795919
N = 20000
4733,245406
4923,462845
4737,072338
4905,608551
4772,336261
