gcc-7 (Ubuntu 7,1,0-10ubuntu1~16,04,york0) 7,1,0
Copyright (C) 2017 Free Software Foundation, Inc,
This is free software; see the source for copying conditions,  There is NO
warranty; not even for MERCHANTABILITY or FITNESS FOR A PARTICULAR PURPOSE,

N = 5000
317,589570
317,072370
317,070607
317,120227
317,119148
N = 10000
2512,071806
2511,126198
2512,293831
2518,843485
2526,981657
N = 15000
8464,428062
8489,424569
8482,369741
8490,258572
8480,244632
N = 20000
19965,425489
19975,156020
