gcc (Ubuntu 5,4,0-6ubuntu1~16,04,10) 5,4,0 20160609
Copyright (C) 2015 Free Software Foundation, Inc,
This is free software; see the source for copying conditions,  There is NO
warranty; not even for MERCHANTABILITY or FITNESS FOR A PARTICULAR PURPOSE,

N = 5000
448,507307
446,993527
447,266857
gcc (Ubuntu 5,4,0-6ubuntu1~16,04,10) 5,4,0 20160609
Copyright (C) 2015 Free Software Foundation, Inc,
This is free software; see the source for copying conditions,  There is NO
warranty; not even for MERCHANTABILITY or FITNESS FOR A PARTICULAR PURPOSE,

N = 5000
446,392021
445,772471
443,792098
443,289720
444,925611
N = 10000
3510,147850
3507,001098
3498,350655
3498,142515
3497,815136
N = 15000
11910,316711
11906,611364
11898,153595
11897,949150
11923,764330
N = 20000
27823,944705
27830,779736
27856,291676
28512,232967
28569,465028
