gcc (Ubuntu 5,4,0-6ubuntu1~16,04,10) 5,4,0 20160609
Copyright (C) 2015 Free Software Foundation, Inc,
This is free software; see the source for copying conditions,  There is NO
warranty; not even for MERCHANTABILITY or FITNESS FOR A PARTICULAR PURPOSE,

N = 5000
442,761594
441,723613
441,940719
441,118871
440,915061
N = 10000
3503,151479
3505,601114
3499,451143
3498,081137
3496,920914
N = 15000
11911,284500
11906,352841
11898,393217
11905,998070
11933,537355
N = 20000
27827,718765
27850,087187
27880,301221
28576,592853
28884,744682
