N = 15000
1 - 65.769378 s
2 - 65.379583 s
3 - 66.421557 s
4 - 65.922791 s
5 - 66.188269 s
6 - 65.457747 s
7 - 65.385233 s
8 - 65.985098 s
9 - 65.558223 s
10 - 65.888067 s
11 - 65.373275 s
12 - 65.618014 s
13 - 66.639078 s
14 - 65.420943 s
15 - 65.399674 s
16 - 66.224725 s
17 - 65.642253 s
18 - 66.666483 s
19 - 65.407483 s
20 - 65.477796 s
