N = 10000
1 - 29.121177 s
2 - 29.124448 s
3 - 29.977242 s
4 - 29.222100 s
5 - 29.074216 s
6 - 29.473054 s
7 - 29.093227 s
8 - 29.102072 s
9 - 29.072758 s
10 - 29.177638 s
11 - 29.082593 s
12 - 29.464523 s
13 - 29.111167 s
14 - 29.074503 s
15 - 29.181267 s
16 - 29.305106 s
17 - 29.075225 s
18 - 29.083305 s
19 - 29.444724 s
20 - 29.119030 s
