gcc (Ubuntu 5,4,0-6ubuntu1~16,04,10) 5,4,0 20160609
Copyright (C) 2015 Free Software Foundation, Inc,
This is free software; see the source for copying conditions,  There is NO
warranty; not even for MERCHANTABILITY or FITNESS FOR A PARTICULAR PURPOSE,

N = 5000
469,276129
471,774595
N = 10000
3659,036605
3679,045503
N = 15000
N = 20000
