N = 5000
1 - 6.615223 s
2 - 6.569758 s
3 - 6.592716 s
4 - 6.557974 s
5 - 6.609688 s
6 - 6.622376 s
7 - 6.564482 s
8 - 6.619175 s
9 - 6.607327 s
10 - 6.601952 s
11 - 6.567840 s
12 - 6.615930 s
13 - 6.615989 s
14 - 6.551665 s
15 - 6.606915 s
16 - 6.566309 s
17 - 6.557695 s
18 - 6.655580 s
19 - 6.551671 s
20 - 6.610780 s
