gcc (Ubuntu 5,4,0-6ubuntu1~16,04,10) 5,4,0 20160609
Copyright (C) 2015 Free Software Foundation, Inc,
This is free software; see the source for copying conditions,  There is NO
warranty; not even for MERCHANTABILITY or FITNESS FOR A PARTICULAR PURPOSE,

N = 5000
46,966835
46,427616
46,339092
46,380306
46,534664
N = 10000
333,686005
332,381348
332,570740
333,214417
333,775635
N = 15000
1070,609497
1271,698364
1269,274292
1275,272339
1286,409912
N = 20000
3067,561523
2538,252686
2465,835449
2468,866455
2467,450928
