gcc-7 (Ubuntu 7,1,0-10ubuntu1~16,04,york0) 7,1,0
Copyright (C) 2017 Free Software Foundation, Inc,
This is free software; see the source for copying conditions,  There is NO
warranty; not even for MERCHANTABILITY or FITNESS FOR A PARTICULAR PURPOSE,

N = 5000
189,821121
189,276108
189,364075
189,348083
189,145874
N = 10000
1488,049072
1481,056396
1475,543457
1475,222412
1475,726440
