gcc (Ubuntu 5,4,0-6ubuntu1~16,04,10) 5,4,0 20160609
Copyright (C) 2015 Free Software Foundation, Inc,
This is free software; see the source for copying conditions,  There is NO
warranty; not even for MERCHANTABILITY or FITNESS FOR A PARTICULAR PURPOSE,

N = 5000
205,246185
204,840607
204,819794
204,810989
204,831650
N = 10000
1611,398926
1610,436646
1610,379028
1610,424805
1610,574219
N = 15000
5410,394531
5421,442383
5425,956543
5459,846191
5435,837402
N = 20000
12828,625977
12828,803711
12836,790039
12825,605469
12798,314453
