gcc (Ubuntu 5,4,0-6ubuntu1~16,04,10) 5,4,0 20160609
Copyright (C) 2015 Free Software Foundation, Inc,
This is free software; see the source for copying conditions,  There is NO
warranty; not even for MERCHANTABILITY or FITNESS FOR A PARTICULAR PURPOSE,

N = 5000
323,632385
327,374786
327,038269
329,533356
327,451660
N = 10000
gcc (Ubuntu 5,4,0-6ubuntu1~16,04,10) 5,4,0 20160609
Copyright (C) 2015 Free Software Foundation, Inc,
This is free software; see the source for copying conditions,  There is NO
warranty; not even for MERCHANTABILITY or FITNESS FOR A PARTICULAR PURPOSE,

N = 5000
325,034210
324,619720
324,686035
324,558441
326,110535
N = 10000
2558,290771
2552,431641
2547,583008
2541,562500
2542,112549
N = 15000
8964,315430
8972,124023
8966,331055
8982,662109
8983,751953
N = 20000
20149,476562
20140,371094
20132,798828
20137,144531
20135,841797
