gcc-7 (Ubuntu 7,1,0-10ubuntu1~16,04,york0) 7,1,0
Copyright (C) 2017 Free Software Foundation, Inc,
This is free software; see the source for copying conditions,  There is NO
warranty; not even for MERCHANTABILITY or FITNESS FOR A PARTICULAR PURPOSE,

N = 5000
323,736328
323,622864
324,072144
324,719147
324,659027
N = 10000
2550,823975
2544,540283
2558,044678
2542,192139
2552,065430
N = 15000
9006,348633
9009,206055
8999,907227
8999,641602
8993,521484
N = 20000
20181,781250
20186,515625
20173,009766
20167,455078
20179,566406
